%YAML 1.1
%TAG !u! tag:unity3d.com,2011:
--- !u!29 &1
OcclusionCullingSettings:
  m_ObjectHideFlags: 0
  serializedVersion: 2
  m_OcclusionBakeSettings:
    smallestOccluder: 5
    smallestHole: 0.25
    backfaceThreshold: 100
  m_SceneGUID: 00000000000000000000000000000000
  m_OcclusionCullingData: {fileID: 0}
--- !u!104 &2
RenderSettings:
  m_ObjectHideFlags: 0
  serializedVersion: 8
  m_Fog: 0
  m_FogColor: {r: 0.5, g: 0.5, b: 0.5, a: 1}
  m_FogMode: 3
  m_FogDensity: 0.01
  m_LinearFogStart: 0
  m_LinearFogEnd: 300
  m_AmbientSkyColor: {r: 0.212, g: 0.227, b: 0.259, a: 1}
  m_AmbientEquatorColor: {r: 0.114, g: 0.125, b: 0.133, a: 1}
  m_AmbientGroundColor: {r: 0.047, g: 0.043, b: 0.035, a: 1}
  m_AmbientIntensity: 1
  m_AmbientMode: 0
  m_SubtractiveShadowColor: {r: 0.42, g: 0.478, b: 0.627, a: 1}
  m_SkyboxMaterial: {fileID: 2100000, guid: 283efbe9566381249820af162e9a3c03, type: 2}
  m_HaloStrength: 0.5
  m_FlareStrength: 1
  m_FlareFadeSpeed: 3
  m_HaloTexture: {fileID: 0}
  m_SpotCookie: {fileID: 10001, guid: 0000000000000000e000000000000000, type: 0}
  m_DefaultReflectionMode: 0
  m_DefaultReflectionResolution: 128
  m_ReflectionBounces: 1
  m_ReflectionIntensity: 1
  m_CustomReflection: {fileID: 0}
  m_Sun: {fileID: 0}
  m_IndirectSpecularColor: {r: 0.8251422, g: 0.7845291, b: 0.5814934, a: 1}
--- !u!157 &3
LightmapSettings:
  m_ObjectHideFlags: 0
  serializedVersion: 11
  m_GIWorkflowMode: 1
  m_GISettings:
    serializedVersion: 2
    m_BounceScale: 1
    m_IndirectOutputScale: 1
    m_AlbedoBoost: 1
    m_TemporalCoherenceThreshold: 1
    m_EnvironmentLightingMode: 0
    m_EnableBakedLightmaps: 1
    m_EnableRealtimeLightmaps: 1
  m_LightmapEditorSettings:
    serializedVersion: 9
    m_Resolution: 2
    m_BakeResolution: 80
    m_TextureWidth: 1024
    m_TextureHeight: 1024
    m_AO: 1
    m_AOMaxDistance: 10
    m_CompAOExponent: 5
    m_CompAOExponentDirect: 5
    m_Padding: 2
    m_LightmapParameters: {fileID: 0}
    m_LightmapsBakeMode: 0
    m_TextureCompression: 1
    m_FinalGather: 1
    m_FinalGatherFiltering: 1
    m_FinalGatherRayCount: 512
    m_ReflectionCompression: 2
    m_MixedBakeMode: 1
    m_BakeBackend: 0
    m_PVRSampling: 1
    m_PVRDirectSampleCount: 32
    m_PVRSampleCount: 500
    m_PVRBounces: 2
    m_PVRFilterTypeDirect: 0
    m_PVRFilterTypeIndirect: 0
    m_PVRFilterTypeAO: 0
    m_PVRFilteringMode: 0
    m_PVRCulling: 1
    m_PVRFilteringGaussRadiusDirect: 1
    m_PVRFilteringGaussRadiusIndirect: 5
    m_PVRFilteringGaussRadiusAO: 2
    m_PVRFilteringAtrousPositionSigmaDirect: 0.5
    m_PVRFilteringAtrousPositionSigmaIndirect: 2
    m_PVRFilteringAtrousPositionSigmaAO: 1
    m_ShowResolutionOverlay: 1
  m_LightingDataAsset: {fileID: 112000010, guid: 30ed3c99591e15f40b9e528d8a6053d0,
    type: 2}
  m_UseShadowmask: 0
--- !u!196 &4
NavMeshSettings:
  serializedVersion: 2
  m_ObjectHideFlags: 0
  m_BuildSettings:
    serializedVersion: 2
    agentTypeID: 0
    agentRadius: 0.5
    agentHeight: 2
    agentSlope: 45
    agentClimb: 0.4
    ledgeDropHeight: 0
    maxJumpAcrossDistance: 0
    minRegionArea: 2
    manualCellSize: 0
    cellSize: 0.16666667
    manualTileSize: 0
    tileSize: 256
    accuratePlacement: 0
    debug:
      m_Flags: 0
  m_NavMeshData: {fileID: 0}
--- !u!1 &53119588
GameObject:
  m_ObjectHideFlags: 0
  m_PrefabParentObject: {fileID: 1660479392756500, guid: 9848e4b3deb970743a6ea02dcfe6159e,
    type: 2}
  m_PrefabInternal: {fileID: 697088346}
  serializedVersion: 5
  m_Component:
  - component: {fileID: 53119591}
  - component: {fileID: 53119590}
  - component: {fileID: 53119589}
  m_Layer: 0
  m_Name: Pillar_Pref
  m_TagString: Untagged
  m_Icon: {fileID: 0}
  m_NavMeshLayer: 0
  m_StaticEditorFlags: 4294967295
  m_IsActive: 1
--- !u!23 &53119589
MeshRenderer:
  m_ObjectHideFlags: 0
  m_PrefabParentObject: {fileID: 23888049290030744, guid: 9848e4b3deb970743a6ea02dcfe6159e,
    type: 2}
  m_PrefabInternal: {fileID: 697088346}
  m_GameObject: {fileID: 53119588}
  m_Enabled: 1
  m_CastShadows: 1
  m_ReceiveShadows: 1
  m_DynamicOccludee: 1
  m_MotionVectors: 1
  m_LightProbeUsage: 1
  m_ReflectionProbeUsage: 1
  m_Materials:
  - {fileID: 2100000, guid: e2cfa5d8ccbd48d4a87792c5e65f03dc, type: 2}
  m_StaticBatchInfo:
    firstSubMesh: 0
    subMeshCount: 0
  m_StaticBatchRoot: {fileID: 0}
  m_ProbeAnchor: {fileID: 0}
  m_LightProbeVolumeOverride: {fileID: 0}
  m_ScaleInLightmap: 1
  m_PreserveUVs: 0
  m_IgnoreNormalsForChartDetection: 0
  m_ImportantGI: 0
  m_StitchLightmapSeams: 0
  m_SelectedEditorRenderState: 3
  m_MinimumChartSize: 4
  m_AutoUVMaxDistance: 0.5
  m_AutoUVMaxAngle: 89
  m_LightmapParameters: {fileID: 0}
  m_SortingLayerID: 0
  m_SortingLayer: 0
  m_SortingOrder: 0
--- !u!33 &53119590
MeshFilter:
  m_ObjectHideFlags: 0
  m_PrefabParentObject: {fileID: 33806347611042714, guid: 9848e4b3deb970743a6ea02dcfe6159e,
    type: 2}
  m_PrefabInternal: {fileID: 697088346}
  m_GameObject: {fileID: 53119588}
  m_Mesh: {fileID: 4300000, guid: 07eb4bdb8fdb77343a40f200545c5841, type: 3}
--- !u!4 &53119591
Transform:
  m_ObjectHideFlags: 0
  m_PrefabParentObject: {fileID: 4397688981244916, guid: 9848e4b3deb970743a6ea02dcfe6159e,
    type: 2}
  m_PrefabInternal: {fileID: 697088346}
  m_GameObject: {fileID: 53119588}
  m_LocalRotation: {x: 0, y: -0.7071068, z: 0, w: 0.7071068}
  m_LocalPosition: {x: -0, y: 0, z: 0}
  m_LocalScale: {x: 1, y: 1, z: 1}
  m_Children: []
  m_Father: {fileID: 0}
  m_RootOrder: 2
  m_LocalEulerAnglesHint: {x: 0, y: -90, z: 0}
--- !u!1001 &60117514
Prefab:
  m_ObjectHideFlags: 0
  serializedVersion: 2
  m_Modification:
    m_TransformParent: {fileID: 0}
    m_Modifications:
    - target: {fileID: 4397688981244916, guid: 9848e4b3deb970743a6ea02dcfe6159e, type: 2}
      propertyPath: m_LocalPosition.x
      value: 3
      objectReference: {fileID: 0}
    - target: {fileID: 4397688981244916, guid: 9848e4b3deb970743a6ea02dcfe6159e, type: 2}
      propertyPath: m_LocalPosition.y
      value: 0
      objectReference: {fileID: 0}
    - target: {fileID: 4397688981244916, guid: 9848e4b3deb970743a6ea02dcfe6159e, type: 2}
      propertyPath: m_LocalPosition.z
      value: 0
      objectReference: {fileID: 0}
    - target: {fileID: 4397688981244916, guid: 9848e4b3deb970743a6ea02dcfe6159e, type: 2}
      propertyPath: m_LocalRotation.x
      value: 0
      objectReference: {fileID: 0}
    - target: {fileID: 4397688981244916, guid: 9848e4b3deb970743a6ea02dcfe6159e, type: 2}
      propertyPath: m_LocalRotation.y
      value: 0
      objectReference: {fileID: 0}
    - target: {fileID: 4397688981244916, guid: 9848e4b3deb970743a6ea02dcfe6159e, type: 2}
      propertyPath: m_LocalRotation.z
      value: 0
      objectReference: {fileID: 0}
    - target: {fileID: 4397688981244916, guid: 9848e4b3deb970743a6ea02dcfe6159e, type: 2}
      propertyPath: m_LocalRotation.w
      value: 1
      objectReference: {fileID: 0}
    - target: {fileID: 4397688981244916, guid: 9848e4b3deb970743a6ea02dcfe6159e, type: 2}
      propertyPath: m_RootOrder
      value: 4
      objectReference: {fileID: 0}
    - target: {fileID: 1660479392756500, guid: 9848e4b3deb970743a6ea02dcfe6159e, type: 2}
      propertyPath: m_StaticEditorFlags
      value: 4294967295
      objectReference: {fileID: 0}
    - target: {fileID: 1660479392756500, guid: 9848e4b3deb970743a6ea02dcfe6159e, type: 2}
      propertyPath: m_Name
      value: Pillar_Pref (1)
      objectReference: {fileID: 0}
    - target: {fileID: 4397688981244916, guid: 9848e4b3deb970743a6ea02dcfe6159e, type: 2}
      propertyPath: m_LocalEulerAnglesHint.y
      value: 0
      objectReference: {fileID: 0}
    m_RemovedComponents: []
  m_ParentPrefab: {fileID: 100100000, guid: 9848e4b3deb970743a6ea02dcfe6159e, type: 2}
  m_RootGameObject: {fileID: 1273690727}
  m_IsPrefabParent: 0
--- !u!1001 &71510704
Prefab:
  m_ObjectHideFlags: 0
  serializedVersion: 2
  m_Modification:
    m_TransformParent: {fileID: 0}
    m_Modifications:
    - target: {fileID: 4397688981244916, guid: 9848e4b3deb970743a6ea02dcfe6159e, type: 2}
      propertyPath: m_LocalPosition.x
      value: -0
      objectReference: {fileID: 0}
    - target: {fileID: 4397688981244916, guid: 9848e4b3deb970743a6ea02dcfe6159e, type: 2}
      propertyPath: m_LocalPosition.y
      value: 0
      objectReference: {fileID: 0}
    - target: {fileID: 4397688981244916, guid: 9848e4b3deb970743a6ea02dcfe6159e, type: 2}
      propertyPath: m_LocalPosition.z
      value: 6
      objectReference: {fileID: 0}
    - target: {fileID: 4397688981244916, guid: 9848e4b3deb970743a6ea02dcfe6159e, type: 2}
      propertyPath: m_LocalRotation.x
      value: 0
      objectReference: {fileID: 0}
    - target: {fileID: 4397688981244916, guid: 9848e4b3deb970743a6ea02dcfe6159e, type: 2}
      propertyPath: m_LocalRotation.y
      value: 0
      objectReference: {fileID: 0}
    - target: {fileID: 4397688981244916, guid: 9848e4b3deb970743a6ea02dcfe6159e, type: 2}
      propertyPath: m_LocalRotation.z
      value: 0
      objectReference: {fileID: 0}
    - target: {fileID: 4397688981244916, guid: 9848e4b3deb970743a6ea02dcfe6159e, type: 2}
      propertyPath: m_LocalRotation.w
      value: 1
      objectReference: {fileID: 0}
    - target: {fileID: 4397688981244916, guid: 9848e4b3deb970743a6ea02dcfe6159e, type: 2}
      propertyPath: m_RootOrder
      value: 7
      objectReference: {fileID: 0}
    - target: {fileID: 1660479392756500, guid: 9848e4b3deb970743a6ea02dcfe6159e, type: 2}
      propertyPath: m_StaticEditorFlags
      value: 4294967295
      objectReference: {fileID: 0}
    - target: {fileID: 1660479392756500, guid: 9848e4b3deb970743a6ea02dcfe6159e, type: 2}
      propertyPath: m_Name
      value: Pillar_Pref (4)
      objectReference: {fileID: 0}
    m_RemovedComponents: []
  m_ParentPrefab: {fileID: 100100000, guid: 9848e4b3deb970743a6ea02dcfe6159e, type: 2}
  m_RootGameObject: {fileID: 1321284920}
  m_IsPrefabParent: 0
--- !u!1 &205876951
GameObject:
  m_ObjectHideFlags: 0
  m_PrefabParentObject: {fileID: 1035432076583628, guid: f9b86bcc0468a294a85b6a142e296307,
    type: 2}
  m_PrefabInternal: {fileID: 505343586}
  serializedVersion: 5
  m_Component:
  - component: {fileID: 205876954}
  - component: {fileID: 205876953}
  - component: {fileID: 205876952}
  m_Layer: 0
  m_Name: Floor_Pref
  m_TagString: Untagged
  m_Icon: {fileID: 0}
  m_NavMeshLayer: 0
  m_StaticEditorFlags: 4294967295
  m_IsActive: 1
--- !u!23 &205876952
MeshRenderer:
  m_ObjectHideFlags: 0
  m_PrefabParentObject: {fileID: 23183655207383894, guid: f9b86bcc0468a294a85b6a142e296307,
    type: 2}
  m_PrefabInternal: {fileID: 505343586}
  m_GameObject: {fileID: 205876951}
  m_Enabled: 1
  m_CastShadows: 1
  m_ReceiveShadows: 1
  m_DynamicOccludee: 1
  m_MotionVectors: 1
  m_LightProbeUsage: 1
  m_ReflectionProbeUsage: 1
  m_Materials:
  - {fileID: 2100000, guid: f17dedf74c4d9134a81b7e8148bb2134, type: 2}
  m_StaticBatchInfo:
    firstSubMesh: 0
    subMeshCount: 0
  m_StaticBatchRoot: {fileID: 0}
  m_ProbeAnchor: {fileID: 0}
  m_LightProbeVolumeOverride: {fileID: 0}
  m_ScaleInLightmap: 1
  m_PreserveUVs: 1
  m_IgnoreNormalsForChartDetection: 0
  m_ImportantGI: 0
  m_StitchLightmapSeams: 0
  m_SelectedEditorRenderState: 3
  m_MinimumChartSize: 4
  m_AutoUVMaxDistance: 0.5
  m_AutoUVMaxAngle: 89
  m_LightmapParameters: {fileID: 0}
  m_SortingLayerID: 0
  m_SortingLayer: 0
  m_SortingOrder: 0
--- !u!33 &205876953
MeshFilter:
  m_ObjectHideFlags: 0
  m_PrefabParentObject: {fileID: 33149542494045868, guid: f9b86bcc0468a294a85b6a142e296307,
    type: 2}
  m_PrefabInternal: {fileID: 505343586}
  m_GameObject: {fileID: 205876951}
  m_Mesh: {fileID: 10206, guid: 0000000000000000e000000000000000, type: 0}
--- !u!4 &205876954
Transform:
  m_ObjectHideFlags: 0
  m_PrefabParentObject: {fileID: 4078720251463330, guid: f9b86bcc0468a294a85b6a142e296307,
    type: 2}
  m_PrefabInternal: {fileID: 505343586}
  m_GameObject: {fileID: 205876951}
  m_LocalRotation: {x: 0, y: 0, z: 0, w: 1}
  m_LocalPosition: {x: 6.58, y: 0, z: 7.81}
  m_LocalScale: {x: 30, y: 0.01, z: 30}
  m_Children: []
  m_Father: {fileID: 0}
  m_RootOrder: 3
  m_LocalEulerAnglesHint: {x: 0, y: 0, z: 0}
--- !u!1 &271094562
GameObject:
  m_ObjectHideFlags: 0
  m_PrefabParentObject: {fileID: 1660479392756500, guid: 9848e4b3deb970743a6ea02dcfe6159e,
    type: 2}
  m_PrefabInternal: {fileID: 1490601211}
  serializedVersion: 5
  m_Component:
  - component: {fileID: 271094565}
  - component: {fileID: 271094564}
  - component: {fileID: 271094563}
  m_Layer: 0
  m_Name: Pillar_Pref (2)
  m_TagString: Untagged
  m_Icon: {fileID: 0}
  m_NavMeshLayer: 0
  m_StaticEditorFlags: 4294967295
  m_IsActive: 1
--- !u!23 &271094563
MeshRenderer:
  m_ObjectHideFlags: 0
  m_PrefabParentObject: {fileID: 23888049290030744, guid: 9848e4b3deb970743a6ea02dcfe6159e,
    type: 2}
  m_PrefabInternal: {fileID: 1490601211}
  m_GameObject: {fileID: 271094562}
  m_Enabled: 1
  m_CastShadows: 1
  m_ReceiveShadows: 1
  m_DynamicOccludee: 1
  m_MotionVectors: 1
  m_LightProbeUsage: 1
  m_ReflectionProbeUsage: 1
  m_Materials:
  - {fileID: 2100000, guid: e2cfa5d8ccbd48d4a87792c5e65f03dc, type: 2}
  m_StaticBatchInfo:
    firstSubMesh: 0
    subMeshCount: 0
  m_StaticBatchRoot: {fileID: 0}
  m_ProbeAnchor: {fileID: 0}
  m_LightProbeVolumeOverride: {fileID: 0}
  m_ScaleInLightmap: 1
  m_PreserveUVs: 0
  m_IgnoreNormalsForChartDetection: 0
  m_ImportantGI: 0
  m_StitchLightmapSeams: 0
  m_SelectedEditorRenderState: 3
  m_MinimumChartSize: 4
  m_AutoUVMaxDistance: 0.5
  m_AutoUVMaxAngle: 89
  m_LightmapParameters: {fileID: 0}
  m_SortingLayerID: 0
  m_SortingLayer: 0
  m_SortingOrder: 0
--- !u!33 &271094564
MeshFilter:
  m_ObjectHideFlags: 0
  m_PrefabParentObject: {fileID: 33806347611042714, guid: 9848e4b3deb970743a6ea02dcfe6159e,
    type: 2}
  m_PrefabInternal: {fileID: 1490601211}
  m_GameObject: {fileID: 271094562}
  m_Mesh: {fileID: 4300000, guid: 07eb4bdb8fdb77343a40f200545c5841, type: 3}
--- !u!4 &271094565
Transform:
  m_ObjectHideFlags: 0
  m_PrefabParentObject: {fileID: 4397688981244916, guid: 9848e4b3deb970743a6ea02dcfe6159e,
    type: 2}
  m_PrefabInternal: {fileID: 1490601211}
  m_GameObject: {fileID: 271094562}
  m_LocalRotation: {x: 0, y: 1, z: 0, w: 0}
  m_LocalPosition: {x: 6, y: 0, z: 0}
  m_LocalScale: {x: 1, y: 1, z: 1}
  m_Children: []
  m_Father: {fileID: 0}
  m_RootOrder: 5
  m_LocalEulerAnglesHint: {x: 0, y: 180, z: 0}
--- !u!1001 &386503665
Prefab:
  m_ObjectHideFlags: 0
  serializedVersion: 2
  m_Modification:
    m_TransformParent: {fileID: 0}
    m_Modifications:
    - target: {fileID: 4397688981244916, guid: 9848e4b3deb970743a6ea02dcfe6159e, type: 2}
      propertyPath: m_LocalPosition.x
      value: 6
      objectReference: {fileID: 0}
    - target: {fileID: 4397688981244916, guid: 9848e4b3deb970743a6ea02dcfe6159e, type: 2}
      propertyPath: m_LocalPosition.y
      value: 0
      objectReference: {fileID: 0}
    - target: {fileID: 4397688981244916, guid: 9848e4b3deb970743a6ea02dcfe6159e, type: 2}
      propertyPath: m_LocalPosition.z
      value: 6
      objectReference: {fileID: 0}
    - target: {fileID: 4397688981244916, guid: 9848e4b3deb970743a6ea02dcfe6159e, type: 2}
      propertyPath: m_LocalRotation.x
      value: 0
      objectReference: {fileID: 0}
    - target: {fileID: 4397688981244916, guid: 9848e4b3deb970743a6ea02dcfe6159e, type: 2}
      propertyPath: m_LocalRotation.y
      value: 0
      objectReference: {fileID: 0}
    - target: {fileID: 4397688981244916, guid: 9848e4b3deb970743a6ea02dcfe6159e, type: 2}
      propertyPath: m_LocalRotation.z
      value: 0
      objectReference: {fileID: 0}
    - target: {fileID: 4397688981244916, guid: 9848e4b3deb970743a6ea02dcfe6159e, type: 2}
      propertyPath: m_LocalRotation.w
      value: 1
      objectReference: {fileID: 0}
    - target: {fileID: 4397688981244916, guid: 9848e4b3deb970743a6ea02dcfe6159e, type: 2}
      propertyPath: m_RootOrder
      value: 8
      objectReference: {fileID: 0}
    - target: {fileID: 1660479392756500, guid: 9848e4b3deb970743a6ea02dcfe6159e, type: 2}
      propertyPath: m_StaticEditorFlags
      value: 4294967295
      objectReference: {fileID: 0}
    - target: {fileID: 1660479392756500, guid: 9848e4b3deb970743a6ea02dcfe6159e, type: 2}
      propertyPath: m_Name
      value: Pillar_Pref (5)
      objectReference: {fileID: 0}
    m_RemovedComponents: []
  m_ParentPrefab: {fileID: 100100000, guid: 9848e4b3deb970743a6ea02dcfe6159e, type: 2}
  m_RootGameObject: {fileID: 948724402}
  m_IsPrefabParent: 0
--- !u!1001 &505343586
Prefab:
  m_ObjectHideFlags: 0
  serializedVersion: 2
  m_Modification:
    m_TransformParent: {fileID: 0}
    m_Modifications:
    - target: {fileID: 4078720251463330, guid: f9b86bcc0468a294a85b6a142e296307, type: 2}
      propertyPath: m_LocalPosition.x
      value: 6.58
      objectReference: {fileID: 0}
    - target: {fileID: 4078720251463330, guid: f9b86bcc0468a294a85b6a142e296307, type: 2}
      propertyPath: m_LocalPosition.y
      value: 0
      objectReference: {fileID: 0}
    - target: {fileID: 4078720251463330, guid: f9b86bcc0468a294a85b6a142e296307, type: 2}
      propertyPath: m_LocalPosition.z
      value: 7.81
      objectReference: {fileID: 0}
    - target: {fileID: 4078720251463330, guid: f9b86bcc0468a294a85b6a142e296307, type: 2}
      propertyPath: m_LocalRotation.x
      value: 0
      objectReference: {fileID: 0}
    - target: {fileID: 4078720251463330, guid: f9b86bcc0468a294a85b6a142e296307, type: 2}
      propertyPath: m_LocalRotation.y
      value: 0
      objectReference: {fileID: 0}
    - target: {fileID: 4078720251463330, guid: f9b86bcc0468a294a85b6a142e296307, type: 2}
      propertyPath: m_LocalRotation.z
      value: 0
      objectReference: {fileID: 0}
    - target: {fileID: 4078720251463330, guid: f9b86bcc0468a294a85b6a142e296307, type: 2}
      propertyPath: m_LocalRotation.w
      value: 1
      objectReference: {fileID: 0}
    - target: {fileID: 4078720251463330, guid: f9b86bcc0468a294a85b6a142e296307, type: 2}
      propertyPath: m_RootOrder
      value: 3
      objectReference: {fileID: 0}
    - target: {fileID: 23183655207383894, guid: f9b86bcc0468a294a85b6a142e296307,
        type: 2}
      propertyPath: m_Materials.Array.data[0]
      value: 
      objectReference: {fileID: 2100000, guid: f17dedf74c4d9134a81b7e8148bb2134, type: 2}
    - target: {fileID: 1035432076583628, guid: f9b86bcc0468a294a85b6a142e296307, type: 2}
      propertyPath: m_StaticEditorFlags
      value: 4294967295
      objectReference: {fileID: 0}
    - target: {fileID: 4078720251463330, guid: f9b86bcc0468a294a85b6a142e296307, type: 2}
      propertyPath: m_LocalScale.x
      value: 30
      objectReference: {fileID: 0}
    - target: {fileID: 4078720251463330, guid: f9b86bcc0468a294a85b6a142e296307, type: 2}
      propertyPath: m_LocalScale.z
      value: 30
      objectReference: {fileID: 0}
    m_RemovedComponents: []
  m_ParentPrefab: {fileID: 100100000, guid: f9b86bcc0468a294a85b6a142e296307, type: 2}
  m_RootGameObject: {fileID: 205876951}
  m_IsPrefabParent: 0
--- !u!1 &568999914
GameObject:
  m_ObjectHideFlags: 0
  m_PrefabParentObject: {fileID: 1660479392756500, guid: 9848e4b3deb970743a6ea02dcfe6159e,
    type: 2}
  m_PrefabInternal: {fileID: 766064781}
  serializedVersion: 5
  m_Component:
  - component: {fileID: 568999917}
  - component: {fileID: 568999916}
  - component: {fileID: 568999915}
  m_Layer: 0
  m_Name: Pillar_Pref (6)
  m_TagString: Untagged
  m_Icon: {fileID: 0}
  m_NavMeshLayer: 0
  m_StaticEditorFlags: 4294967295
  m_IsActive: 1
--- !u!23 &568999915
MeshRenderer:
  m_ObjectHideFlags: 0
  m_PrefabParentObject: {fileID: 23888049290030744, guid: 9848e4b3deb970743a6ea02dcfe6159e,
    type: 2}
  m_PrefabInternal: {fileID: 766064781}
  m_GameObject: {fileID: 568999914}
  m_Enabled: 1
  m_CastShadows: 1
  m_ReceiveShadows: 1
  m_DynamicOccludee: 1
  m_MotionVectors: 1
  m_LightProbeUsage: 1
  m_ReflectionProbeUsage: 1
  m_Materials:
  - {fileID: 2100000, guid: e2cfa5d8ccbd48d4a87792c5e65f03dc, type: 2}
  m_StaticBatchInfo:
    firstSubMesh: 0
    subMeshCount: 0
  m_StaticBatchRoot: {fileID: 0}
  m_ProbeAnchor: {fileID: 0}
  m_LightProbeVolumeOverride: {fileID: 0}
  m_ScaleInLightmap: 1
  m_PreserveUVs: 0
  m_IgnoreNormalsForChartDetection: 0
  m_ImportantGI: 0
  m_StitchLightmapSeams: 0
  m_SelectedEditorRenderState: 3
  m_MinimumChartSize: 4
  m_AutoUVMaxDistance: 0.5
  m_AutoUVMaxAngle: 89
  m_LightmapParameters: {fileID: 0}
  m_SortingLayerID: 0
  m_SortingLayer: 0
  m_SortingOrder: 0
--- !u!33 &568999916
MeshFilter:
  m_ObjectHideFlags: 0
  m_PrefabParentObject: {fileID: 33806347611042714, guid: 9848e4b3deb970743a6ea02dcfe6159e,
    type: 2}
  m_PrefabInternal: {fileID: 766064781}
  m_GameObject: {fileID: 568999914}
  m_Mesh: {fileID: 4300000, guid: 07eb4bdb8fdb77343a40f200545c5841, type: 3}
--- !u!4 &568999917
Transform:
  m_ObjectHideFlags: 0
  m_PrefabParentObject: {fileID: 4397688981244916, guid: 9848e4b3deb970743a6ea02dcfe6159e,
    type: 2}
  m_PrefabInternal: {fileID: 766064781}
  m_GameObject: {fileID: 568999914}
  m_LocalRotation: {x: 0, y: 0, z: 0, w: 1}
  m_LocalPosition: {x: 6, y: 0, z: 3}
  m_LocalScale: {x: 1, y: 1, z: 1}
  m_Children: []
  m_Father: {fileID: 0}
  m_RootOrder: 9
  m_LocalEulerAnglesHint: {x: 0, y: -90, z: 0}
--- !u!1001 &697088346
Prefab:
  m_ObjectHideFlags: 0
  serializedVersion: 2
  m_Modification:
    m_TransformParent: {fileID: 0}
    m_Modifications:
    - target: {fileID: 4397688981244916, guid: 9848e4b3deb970743a6ea02dcfe6159e, type: 2}
      propertyPath: m_LocalPosition.x
      value: -0
      objectReference: {fileID: 0}
    - target: {fileID: 4397688981244916, guid: 9848e4b3deb970743a6ea02dcfe6159e, type: 2}
      propertyPath: m_LocalPosition.y
      value: 0
      objectReference: {fileID: 0}
    - target: {fileID: 4397688981244916, guid: 9848e4b3deb970743a6ea02dcfe6159e, type: 2}
      propertyPath: m_LocalPosition.z
      value: 0
      objectReference: {fileID: 0}
    - target: {fileID: 4397688981244916, guid: 9848e4b3deb970743a6ea02dcfe6159e, type: 2}
      propertyPath: m_LocalRotation.x
      value: 0
      objectReference: {fileID: 0}
    - target: {fileID: 4397688981244916, guid: 9848e4b3deb970743a6ea02dcfe6159e, type: 2}
      propertyPath: m_LocalRotation.y
      value: -0.7071068
      objectReference: {fileID: 0}
    - target: {fileID: 4397688981244916, guid: 9848e4b3deb970743a6ea02dcfe6159e, type: 2}
      propertyPath: m_LocalRotation.z
      value: 0
      objectReference: {fileID: 0}
    - target: {fileID: 4397688981244916, guid: 9848e4b3deb970743a6ea02dcfe6159e, type: 2}
      propertyPath: m_LocalRotation.w
      value: 0.7071068
      objectReference: {fileID: 0}
    - target: {fileID: 4397688981244916, guid: 9848e4b3deb970743a6ea02dcfe6159e, type: 2}
      propertyPath: m_RootOrder
      value: 2
      objectReference: {fileID: 0}
    m_RemovedComponents: []
  m_ParentPrefab: {fileID: 100100000, guid: 9848e4b3deb970743a6ea02dcfe6159e, type: 2}
  m_RootGameObject: {fileID: 53119588}
  m_IsPrefabParent: 0
--- !u!1001 &766064781
Prefab:
  m_ObjectHideFlags: 0
  serializedVersion: 2
  m_Modification:
    m_TransformParent: {fileID: 0}
    m_Modifications:
    - target: {fileID: 4397688981244916, guid: 9848e4b3deb970743a6ea02dcfe6159e, type: 2}
      propertyPath: m_LocalPosition.x
      value: 6
      objectReference: {fileID: 0}
    - target: {fileID: 4397688981244916, guid: 9848e4b3deb970743a6ea02dcfe6159e, type: 2}
      propertyPath: m_LocalPosition.y
      value: 0
      objectReference: {fileID: 0}
    - target: {fileID: 4397688981244916, guid: 9848e4b3deb970743a6ea02dcfe6159e, type: 2}
      propertyPath: m_LocalPosition.z
      value: 3
      objectReference: {fileID: 0}
    - target: {fileID: 4397688981244916, guid: 9848e4b3deb970743a6ea02dcfe6159e, type: 2}
      propertyPath: m_LocalRotation.x
      value: 0
      objectReference: {fileID: 0}
    - target: {fileID: 4397688981244916, guid: 9848e4b3deb970743a6ea02dcfe6159e, type: 2}
      propertyPath: m_LocalRotation.y
      value: 0
      objectReference: {fileID: 0}
    - target: {fileID: 4397688981244916, guid: 9848e4b3deb970743a6ea02dcfe6159e, type: 2}
      propertyPath: m_LocalRotation.z
      value: 0
      objectReference: {fileID: 0}
    - target: {fileID: 4397688981244916, guid: 9848e4b3deb970743a6ea02dcfe6159e, type: 2}
      propertyPath: m_LocalRotation.w
      value: 1
      objectReference: {fileID: 0}
    - target: {fileID: 4397688981244916, guid: 9848e4b3deb970743a6ea02dcfe6159e, type: 2}
      propertyPath: m_RootOrder
      value: 9
      objectReference: {fileID: 0}
    - target: {fileID: 1660479392756500, guid: 9848e4b3deb970743a6ea02dcfe6159e, type: 2}
      propertyPath: m_StaticEditorFlags
      value: 4294967295
      objectReference: {fileID: 0}
    - target: {fileID: 1660479392756500, guid: 9848e4b3deb970743a6ea02dcfe6159e, type: 2}
      propertyPath: m_Name
      value: Pillar_Pref (6)
      objectReference: {fileID: 0}
    m_RemovedComponents: []
  m_ParentPrefab: {fileID: 100100000, guid: 9848e4b3deb970743a6ea02dcfe6159e, type: 2}
  m_RootGameObject: {fileID: 568999914}
  m_IsPrefabParent: 0
--- !u!1 &948724402
GameObject:
  m_ObjectHideFlags: 0
  m_PrefabParentObject: {fileID: 1660479392756500, guid: 9848e4b3deb970743a6ea02dcfe6159e,
    type: 2}
  m_PrefabInternal: {fileID: 386503665}
  serializedVersion: 5
  m_Component:
  - component: {fileID: 948724405}
  - component: {fileID: 948724404}
  - component: {fileID: 948724403}
  m_Layer: 0
  m_Name: Pillar_Pref (5)
  m_TagString: Untagged
  m_Icon: {fileID: 0}
  m_NavMeshLayer: 0
  m_StaticEditorFlags: 4294967295
  m_IsActive: 1
--- !u!23 &948724403
MeshRenderer:
  m_ObjectHideFlags: 0
  m_PrefabParentObject: {fileID: 23888049290030744, guid: 9848e4b3deb970743a6ea02dcfe6159e,
    type: 2}
  m_PrefabInternal: {fileID: 386503665}
  m_GameObject: {fileID: 948724402}
  m_Enabled: 1
  m_CastShadows: 1
  m_ReceiveShadows: 1
  m_DynamicOccludee: 1
  m_MotionVectors: 1
  m_LightProbeUsage: 1
  m_ReflectionProbeUsage: 1
  m_Materials:
  - {fileID: 2100000, guid: e2cfa5d8ccbd48d4a87792c5e65f03dc, type: 2}
  m_StaticBatchInfo:
    firstSubMesh: 0
    subMeshCount: 0
  m_StaticBatchRoot: {fileID: 0}
  m_ProbeAnchor: {fileID: 0}
  m_LightProbeVolumeOverride: {fileID: 0}
  m_ScaleInLightmap: 1
  m_PreserveUVs: 0
  m_IgnoreNormalsForChartDetection: 0
  m_ImportantGI: 0
  m_StitchLightmapSeams: 0
  m_SelectedEditorRenderState: 3
  m_MinimumChartSize: 4
  m_AutoUVMaxDistance: 0.5
  m_AutoUVMaxAngle: 89
  m_LightmapParameters: {fileID: 0}
  m_SortingLayerID: 0
  m_SortingLayer: 0
  m_SortingOrder: 0
--- !u!33 &948724404
MeshFilter:
  m_ObjectHideFlags: 0
  m_PrefabParentObject: {fileID: 33806347611042714, guid: 9848e4b3deb970743a6ea02dcfe6159e,
    type: 2}
  m_PrefabInternal: {fileID: 386503665}
  m_GameObject: {fileID: 948724402}
  m_Mesh: {fileID: 4300000, guid: 07eb4bdb8fdb77343a40f200545c5841, type: 3}
--- !u!4 &948724405
Transform:
  m_ObjectHideFlags: 0
  m_PrefabParentObject: {fileID: 4397688981244916, guid: 9848e4b3deb970743a6ea02dcfe6159e,
    type: 2}
  m_PrefabInternal: {fileID: 386503665}
  m_GameObject: {fileID: 948724402}
  m_LocalRotation: {x: 0, y: 0, z: 0, w: 1}
  m_LocalPosition: {x: 6, y: 0, z: 6}
  m_LocalScale: {x: 1, y: 1, z: 1}
  m_Children: []
  m_Father: {fileID: 0}
  m_RootOrder: 8
  m_LocalEulerAnglesHint: {x: 0, y: -90, z: 0}
--- !u!1001 &1020391100
Prefab:
  m_ObjectHideFlags: 0
  serializedVersion: 2
  m_Modification:
    m_TransformParent: {fileID: 0}
    m_Modifications:
    - target: {fileID: 4397688981244916, guid: 9848e4b3deb970743a6ea02dcfe6159e, type: 2}
      propertyPath: m_LocalPosition.x
      value: -0.00000029913522
      objectReference: {fileID: 0}
    - target: {fileID: 4397688981244916, guid: 9848e4b3deb970743a6ea02dcfe6159e, type: 2}
      propertyPath: m_LocalPosition.y
      value: 0
      objectReference: {fileID: 0}
    - target: {fileID: 4397688981244916, guid: 9848e4b3deb970743a6ea02dcfe6159e, type: 2}
      propertyPath: m_LocalPosition.z
      value: 3
      objectReference: {fileID: 0}
    - target: {fileID: 4397688981244916, guid: 9848e4b3deb970743a6ea02dcfe6159e, type: 2}
      propertyPath: m_LocalRotation.x
      value: 0
      objectReference: {fileID: 0}
    - target: {fileID: 4397688981244916, guid: 9848e4b3deb970743a6ea02dcfe6159e, type: 2}
      propertyPath: m_LocalRotation.y
      value: 0.7071068
      objectReference: {fileID: 0}
    - target: {fileID: 4397688981244916, guid: 9848e4b3deb970743a6ea02dcfe6159e, type: 2}
      propertyPath: m_LocalRotation.z
      value: 0
      objectReference: {fileID: 0}
    - target: {fileID: 4397688981244916, guid: 9848e4b3deb970743a6ea02dcfe6159e, type: 2}
      propertyPath: m_LocalRotation.w
      value: 0.7071068
      objectReference: {fileID: 0}
    - target: {fileID: 4397688981244916, guid: 9848e4b3deb970743a6ea02dcfe6159e, type: 2}
      propertyPath: m_RootOrder
      value: 6
      objectReference: {fileID: 0}
    - target: {fileID: 1660479392756500, guid: 9848e4b3deb970743a6ea02dcfe6159e, type: 2}
      propertyPath: m_StaticEditorFlags
      value: 4294967295
      objectReference: {fileID: 0}
    - target: {fileID: 1660479392756500, guid: 9848e4b3deb970743a6ea02dcfe6159e, type: 2}
      propertyPath: m_Name
      value: Pillar_Pref (3)
      objectReference: {fileID: 0}
    - target: {fileID: 4397688981244916, guid: 9848e4b3deb970743a6ea02dcfe6159e, type: 2}
      propertyPath: m_LocalEulerAnglesHint.y
      value: 90
      objectReference: {fileID: 0}
    m_RemovedComponents: []
  m_ParentPrefab: {fileID: 100100000, guid: 9848e4b3deb970743a6ea02dcfe6159e, type: 2}
  m_RootGameObject: {fileID: 1615717806}
  m_IsPrefabParent: 0
--- !u!1 &1060345416
GameObject:
  m_ObjectHideFlags: 0
  m_PrefabParentObject: {fileID: 0}
  m_PrefabInternal: {fileID: 0}
  serializedVersion: 5
  m_Component:
  - component: {fileID: 1060345421}
  - component: {fileID: 1060345420}
  - component: {fileID: 1060345419}
  - component: {fileID: 1060345418}
  - component: {fileID: 1060345417}
  m_Layer: 0
  m_Name: Main Camera
  m_TagString: MainCamera
  m_Icon: {fileID: 0}
  m_NavMeshLayer: 0
  m_StaticEditorFlags: 0
  m_IsActive: 1
--- !u!81 &1060345417
AudioListener:
  m_ObjectHideFlags: 0
  m_PrefabParentObject: {fileID: 0}
  m_PrefabInternal: {fileID: 0}
  m_GameObject: {fileID: 1060345416}
  m_Enabled: 1
--- !u!124 &1060345418
Behaviour:
  m_ObjectHideFlags: 0
  m_PrefabParentObject: {fileID: 0}
  m_PrefabInternal: {fileID: 0}
  m_GameObject: {fileID: 1060345416}
  m_Enabled: 1
--- !u!92 &1060345419
Behaviour:
  m_ObjectHideFlags: 0
  m_PrefabParentObject: {fileID: 0}
  m_PrefabInternal: {fileID: 0}
  m_GameObject: {fileID: 1060345416}
  m_Enabled: 1
--- !u!20 &1060345420
Camera:
  m_ObjectHideFlags: 0
  m_PrefabParentObject: {fileID: 0}
  m_PrefabInternal: {fileID: 0}
  m_GameObject: {fileID: 1060345416}
  m_Enabled: 1
  serializedVersion: 2
  m_ClearFlags: 2
  m_BackGroundColor: {r: 0.45869377, g: 0.53214115, b: 0.61764705, a: 0}
  m_NormalizedViewPortRect:
    serializedVersion: 2
    x: 0
    y: 0
    width: 1
    height: 1
  near clip plane: 0.3
  far clip plane: 1000
  field of view: 60
  orthographic: 0
  orthographic size: 5
  m_Depth: -1
  m_CullingMask:
    serializedVersion: 2
    m_Bits: 4294967295
  m_RenderingPath: -1
  m_TargetTexture: {fileID: 0}
  m_TargetDisplay: 0
  m_TargetEye: 3
  m_HDR: 0
  m_AllowMSAA: 1
  m_AllowDynamicResolution: 0
  m_ForceIntoRT: 0
  m_OcclusionCulling: 1
  m_StereoConvergence: 10
  m_StereoSeparation: 0.022
--- !u!4 &1060345421
Transform:
  m_ObjectHideFlags: 0
  m_PrefabParentObject: {fileID: 0}
  m_PrefabInternal: {fileID: 0}
  m_GameObject: {fileID: 1060345416}
  m_LocalRotation: {x: -0.053044394, y: -0.30876705, z: 0.017255621, w: -0.9495007}
  m_LocalPosition: {x: -1.7753991, y: 2.4178455, z: -3.633948}
  m_LocalScale: {x: 1, y: 1, z: 1}
  m_Children: []
  m_Father: {fileID: 0}
  m_RootOrder: 0
  m_LocalEulerAnglesHint: {x: 0, y: 0, z: 0}
--- !u!1 &1273690727
GameObject:
  m_ObjectHideFlags: 0
  m_PrefabParentObject: {fileID: 1660479392756500, guid: 9848e4b3deb970743a6ea02dcfe6159e,
    type: 2}
  m_PrefabInternal: {fileID: 60117514}
  serializedVersion: 5
  m_Component:
  - component: {fileID: 1273690730}
  - component: {fileID: 1273690729}
  - component: {fileID: 1273690728}
  m_Layer: 0
  m_Name: Pillar_Pref (1)
  m_TagString: Untagged
  m_Icon: {fileID: 0}
  m_NavMeshLayer: 0
  m_StaticEditorFlags: 4294967295
  m_IsActive: 1
--- !u!23 &1273690728
MeshRenderer:
  m_ObjectHideFlags: 0
  m_PrefabParentObject: {fileID: 23888049290030744, guid: 9848e4b3deb970743a6ea02dcfe6159e,
    type: 2}
  m_PrefabInternal: {fileID: 60117514}
  m_GameObject: {fileID: 1273690727}
  m_Enabled: 1
  m_CastShadows: 1
  m_ReceiveShadows: 1
  m_DynamicOccludee: 1
  m_MotionVectors: 1
  m_LightProbeUsage: 1
  m_ReflectionProbeUsage: 1
  m_Materials:
  - {fileID: 2100000, guid: e2cfa5d8ccbd48d4a87792c5e65f03dc, type: 2}
  m_StaticBatchInfo:
    firstSubMesh: 0
    subMeshCount: 0
  m_StaticBatchRoot: {fileID: 0}
  m_ProbeAnchor: {fileID: 0}
  m_LightProbeVolumeOverride: {fileID: 0}
  m_ScaleInLightmap: 1
  m_PreserveUVs: 0
  m_IgnoreNormalsForChartDetection: 0
  m_ImportantGI: 0
  m_StitchLightmapSeams: 0
  m_SelectedEditorRenderState: 3
  m_MinimumChartSize: 4
  m_AutoUVMaxDistance: 0.5
  m_AutoUVMaxAngle: 89
  m_LightmapParameters: {fileID: 0}
  m_SortingLayerID: 0
  m_SortingLayer: 0
  m_SortingOrder: 0
--- !u!33 &1273690729
MeshFilter:
  m_ObjectHideFlags: 0
  m_PrefabParentObject: {fileID: 33806347611042714, guid: 9848e4b3deb970743a6ea02dcfe6159e,
    type: 2}
  m_PrefabInternal: {fileID: 60117514}
  m_GameObject: {fileID: 1273690727}
  m_Mesh: {fileID: 4300000, guid: 07eb4bdb8fdb77343a40f200545c5841, type: 3}
--- !u!4 &1273690730
Transform:
  m_ObjectHideFlags: 0
  m_PrefabParentObject: {fileID: 4397688981244916, guid: 9848e4b3deb970743a6ea02dcfe6159e,
    type: 2}
  m_PrefabInternal: {fileID: 60117514}
  m_GameObject: {fileID: 1273690727}
  m_LocalRotation: {x: 0, y: 0, z: 0, w: 1}
  m_LocalPosition: {x: 3, y: 0, z: 0}
  m_LocalScale: {x: 1, y: 1, z: 1}
  m_Children: []
  m_Father: {fileID: 0}
  m_RootOrder: 4
  m_LocalEulerAnglesHint: {x: 0, y: 0, z: 0}
--- !u!1 &1321284920
GameObject:
  m_ObjectHideFlags: 0
  m_PrefabParentObject: {fileID: 1660479392756500, guid: 9848e4b3deb970743a6ea02dcfe6159e,
    type: 2}
  m_PrefabInternal: {fileID: 71510704}
  serializedVersion: 5
  m_Component:
  - component: {fileID: 1321284923}
  - component: {fileID: 1321284922}
  - component: {fileID: 1321284921}
  m_Layer: 0
  m_Name: Pillar_Pref (4)
  m_TagString: Untagged
  m_Icon: {fileID: 0}
  m_NavMeshLayer: 0
  m_StaticEditorFlags: 4294967295
  m_IsActive: 1
--- !u!23 &1321284921
MeshRenderer:
  m_ObjectHideFlags: 0
  m_PrefabParentObject: {fileID: 23888049290030744, guid: 9848e4b3deb970743a6ea02dcfe6159e,
    type: 2}
  m_PrefabInternal: {fileID: 71510704}
  m_GameObject: {fileID: 1321284920}
  m_Enabled: 1
  m_CastShadows: 1
  m_ReceiveShadows: 1
  m_DynamicOccludee: 1
  m_MotionVectors: 1
  m_LightProbeUsage: 1
  m_ReflectionProbeUsage: 1
  m_Materials:
  - {fileID: 2100000, guid: e2cfa5d8ccbd48d4a87792c5e65f03dc, type: 2}
  m_StaticBatchInfo:
    firstSubMesh: 0
    subMeshCount: 0
  m_StaticBatchRoot: {fileID: 0}
  m_ProbeAnchor: {fileID: 0}
  m_LightProbeVolumeOverride: {fileID: 0}
  m_ScaleInLightmap: 1
  m_PreserveUVs: 0
  m_IgnoreNormalsForChartDetection: 0
  m_ImportantGI: 0
  m_StitchLightmapSeams: 0
  m_SelectedEditorRenderState: 3
  m_MinimumChartSize: 4
  m_AutoUVMaxDistance: 0.5
  m_AutoUVMaxAngle: 89
  m_LightmapParameters: {fileID: 0}
  m_SortingLayerID: 0
  m_SortingLayer: 0
  m_SortingOrder: 0
--- !u!33 &1321284922
MeshFilter:
  m_ObjectHideFlags: 0
  m_PrefabParentObject: {fileID: 33806347611042714, guid: 9848e4b3deb970743a6ea02dcfe6159e,
    type: 2}
  m_PrefabInternal: {fileID: 71510704}
  m_GameObject: {fileID: 1321284920}
  m_Mesh: {fileID: 4300000, guid: 07eb4bdb8fdb77343a40f200545c5841, type: 3}
--- !u!4 &1321284923
Transform:
  m_ObjectHideFlags: 0
  m_PrefabParentObject: {fileID: 4397688981244916, guid: 9848e4b3deb970743a6ea02dcfe6159e,
    type: 2}
  m_PrefabInternal: {fileID: 71510704}
  m_GameObject: {fileID: 1321284920}
  m_LocalRotation: {x: 0, y: 0, z: 0, w: 1}
  m_LocalPosition: {x: -0, y: 0, z: 6}
  m_LocalScale: {x: 1, y: 1, z: 1}
  m_Children: []
  m_Father: {fileID: 0}
  m_RootOrder: 7
  m_LocalEulerAnglesHint: {x: 0, y: -90, z: 0}
--- !u!1 &1323218393
GameObject:
  m_ObjectHideFlags: 0
  m_PrefabParentObject: {fileID: 0}
  m_PrefabInternal: {fileID: 0}
  serializedVersion: 5
  m_Component:
  - component: {fileID: 1323218395}
  - component: {fileID: 1323218394}
  m_Layer: 0
  m_Name: Reflection Probe
  m_TagString: Untagged
  m_Icon: {fileID: 0}
  m_NavMeshLayer: 0
  m_StaticEditorFlags: 0
  m_IsActive: 1
--- !u!215 &1323218394
ReflectionProbe:
  m_ObjectHideFlags: 0
  m_PrefabParentObject: {fileID: 0}
  m_PrefabInternal: {fileID: 0}
  m_GameObject: {fileID: 1323218393}
  m_Enabled: 1
  serializedVersion: 2
  m_Type: 0
  m_Mode: 0
  m_RefreshMode: 0
  m_TimeSlicingMode: 0
  m_Resolution: 128
  m_UpdateFrequency: 0
  m_BoxSize: {x: 10, y: 10, z: 10}
  m_BoxOffset: {x: 0, y: 0, z: 0}
  m_NearClip: 0.3
  m_FarClip: 1000
  m_ShadowDistance: 100
  m_ClearFlags: 1
  m_BackGroundColor: {r: 0.19215687, g: 0.3019608, b: 0.4745098, a: 0}
  m_CullingMask:
    serializedVersion: 2
    m_Bits: 4294967295
  m_IntensityMultiplier: 1
  m_BlendDistance: 1
  m_HDR: 1
  m_BoxProjection: 0
  m_RenderDynamicObjects: 0
  m_UseOcclusionCulling: 1
  m_Importance: 1
  m_CustomBakedTexture: {fileID: 0}
--- !u!4 &1323218395
Transform:
  m_ObjectHideFlags: 0
  m_PrefabParentObject: {fileID: 0}
  m_PrefabInternal: {fileID: 0}
  m_GameObject: {fileID: 1323218393}
  m_LocalRotation: {x: 0, y: 0, z: 0, w: 1}
  m_LocalPosition: {x: 2.69, y: 1.9491348, z: 1.5643535}
  m_LocalScale: {x: 1, y: 1, z: 1}
  m_Children: []
  m_Father: {fileID: 0}
  m_RootOrder: 11
  m_LocalEulerAnglesHint: {x: 0, y: 0, z: 0}
--- !u!1 &1346356133
GameObject:
  m_ObjectHideFlags: 0
  m_PrefabParentObject: {fileID: 1660479392756500, guid: 9848e4b3deb970743a6ea02dcfe6159e,
    type: 2}
  m_PrefabInternal: {fileID: 1440591610}
  serializedVersion: 5
  m_Component:
  - component: {fileID: 1346356136}
  - component: {fileID: 1346356135}
  - component: {fileID: 1346356134}
  m_Layer: 0
  m_Name: Pillar_Pref (7)
  m_TagString: Untagged
  m_Icon: {fileID: 0}
  m_NavMeshLayer: 0
  m_StaticEditorFlags: 4294967295
  m_IsActive: 1
--- !u!23 &1346356134
MeshRenderer:
  m_ObjectHideFlags: 0
  m_PrefabParentObject: {fileID: 23888049290030744, guid: 9848e4b3deb970743a6ea02dcfe6159e,
    type: 2}
  m_PrefabInternal: {fileID: 1440591610}
  m_GameObject: {fileID: 1346356133}
  m_Enabled: 1
  m_CastShadows: 1
  m_ReceiveShadows: 1
  m_DynamicOccludee: 1
  m_MotionVectors: 1
  m_LightProbeUsage: 1
  m_ReflectionProbeUsage: 1
  m_Materials:
  - {fileID: 2100000, guid: e2cfa5d8ccbd48d4a87792c5e65f03dc, type: 2}
  m_StaticBatchInfo:
    firstSubMesh: 0
    subMeshCount: 0
  m_StaticBatchRoot: {fileID: 0}
  m_ProbeAnchor: {fileID: 0}
  m_LightProbeVolumeOverride: {fileID: 0}
  m_ScaleInLightmap: 1
  m_PreserveUVs: 0
  m_IgnoreNormalsForChartDetection: 0
  m_ImportantGI: 0
  m_StitchLightmapSeams: 0
  m_SelectedEditorRenderState: 3
  m_MinimumChartSize: 4
  m_AutoUVMaxDistance: 0.5
  m_AutoUVMaxAngle: 89
  m_LightmapParameters: {fileID: 0}
  m_SortingLayerID: 0
  m_SortingLayer: 0
  m_SortingOrder: 0
--- !u!33 &1346356135
MeshFilter:
  m_ObjectHideFlags: 0
  m_PrefabParentObject: {fileID: 33806347611042714, guid: 9848e4b3deb970743a6ea02dcfe6159e,
    type: 2}
  m_PrefabInternal: {fileID: 1440591610}
  m_GameObject: {fileID: 1346356133}
  m_Mesh: {fileID: 4300000, guid: 07eb4bdb8fdb77343a40f200545c5841, type: 3}
--- !u!4 &1346356136
Transform:
  m_ObjectHideFlags: 0
  m_PrefabParentObject: {fileID: 4397688981244916, guid: 9848e4b3deb970743a6ea02dcfe6159e,
    type: 2}
  m_PrefabInternal: {fileID: 1440591610}
  m_GameObject: {fileID: 1346356133}
  m_LocalRotation: {x: 0, y: 0, z: 0, w: 1}
  m_LocalPosition: {x: 3, y: 0, z: 6}
  m_LocalScale: {x: 1, y: 1, z: 1}
  m_Children: []
  m_Father: {fileID: 0}
  m_RootOrder: 10
  m_LocalEulerAnglesHint: {x: 0, y: -90, z: 0}
--- !u!1001 &1440591610
Prefab:
  m_ObjectHideFlags: 0
  serializedVersion: 2
  m_Modification:
    m_TransformParent: {fileID: 0}
    m_Modifications:
    - target: {fileID: 4397688981244916, guid: 9848e4b3deb970743a6ea02dcfe6159e, type: 2}
      propertyPath: m_LocalPosition.x
      value: 3
      objectReference: {fileID: 0}
    - target: {fileID: 4397688981244916, guid: 9848e4b3deb970743a6ea02dcfe6159e, type: 2}
      propertyPath: m_LocalPosition.y
      value: 0
      objectReference: {fileID: 0}
    - target: {fileID: 4397688981244916, guid: 9848e4b3deb970743a6ea02dcfe6159e, type: 2}
      propertyPath: m_LocalPosition.z
      value: 6
      objectReference: {fileID: 0}
    - target: {fileID: 4397688981244916, guid: 9848e4b3deb970743a6ea02dcfe6159e, type: 2}
      propertyPath: m_LocalRotation.x
      value: 0
      objectReference: {fileID: 0}
    - target: {fileID: 4397688981244916, guid: 9848e4b3deb970743a6ea02dcfe6159e, type: 2}
      propertyPath: m_LocalRotation.y
      value: 0
      objectReference: {fileID: 0}
    - target: {fileID: 4397688981244916, guid: 9848e4b3deb970743a6ea02dcfe6159e, type: 2}
      propertyPath: m_LocalRotation.z
      value: 0
      objectReference: {fileID: 0}
    - target: {fileID: 4397688981244916, guid: 9848e4b3deb970743a6ea02dcfe6159e, type: 2}
      propertyPath: m_LocalRotation.w
      value: 1
      objectReference: {fileID: 0}
    - target: {fileID: 4397688981244916, guid: 9848e4b3deb970743a6ea02dcfe6159e, type: 2}
      propertyPath: m_RootOrder
      value: 10
      objectReference: {fileID: 0}
    - target: {fileID: 1660479392756500, guid: 9848e4b3deb970743a6ea02dcfe6159e, type: 2}
      propertyPath: m_StaticEditorFlags
      value: 4294967295
      objectReference: {fileID: 0}
    - target: {fileID: 1660479392756500, guid: 9848e4b3deb970743a6ea02dcfe6159e, type: 2}
      propertyPath: m_Name
      value: Pillar_Pref (7)
      objectReference: {fileID: 0}
    m_RemovedComponents: []
  m_ParentPrefab: {fileID: 100100000, guid: 9848e4b3deb970743a6ea02dcfe6159e, type: 2}
  m_RootGameObject: {fileID: 1346356133}
  m_IsPrefabParent: 0
--- !u!1001 &1490601211
Prefab:
  m_ObjectHideFlags: 0
  serializedVersion: 2
  m_Modification:
    m_TransformParent: {fileID: 0}
    m_Modifications:
    - target: {fileID: 4397688981244916, guid: 9848e4b3deb970743a6ea02dcfe6159e, type: 2}
      propertyPath: m_LocalPosition.x
      value: 6
      objectReference: {fileID: 0}
    - target: {fileID: 4397688981244916, guid: 9848e4b3deb970743a6ea02dcfe6159e, type: 2}
      propertyPath: m_LocalPosition.y
      value: 0
      objectReference: {fileID: 0}
    - target: {fileID: 4397688981244916, guid: 9848e4b3deb970743a6ea02dcfe6159e, type: 2}
      propertyPath: m_LocalPosition.z
      value: 0
      objectReference: {fileID: 0}
    - target: {fileID: 4397688981244916, guid: 9848e4b3deb970743a6ea02dcfe6159e, type: 2}
      propertyPath: m_LocalRotation.x
      value: 0
      objectReference: {fileID: 0}
    - target: {fileID: 4397688981244916, guid: 9848e4b3deb970743a6ea02dcfe6159e, type: 2}
      propertyPath: m_LocalRotation.y
      value: 1
      objectReference: {fileID: 0}
    - target: {fileID: 4397688981244916, guid: 9848e4b3deb970743a6ea02dcfe6159e, type: 2}
      propertyPath: m_LocalRotation.z
      value: 0
      objectReference: {fileID: 0}
    - target: {fileID: 4397688981244916, guid: 9848e4b3deb970743a6ea02dcfe6159e, type: 2}
      propertyPath: m_LocalRotation.w
      value: 0
      objectReference: {fileID: 0}
    - target: {fileID: 4397688981244916, guid: 9848e4b3deb970743a6ea02dcfe6159e, type: 2}
      propertyPath: m_RootOrder
      value: 5
      objectReference: {fileID: 0}
    - target: {fileID: 1660479392756500, guid: 9848e4b3deb970743a6ea02dcfe6159e, type: 2}
      propertyPath: m_StaticEditorFlags
      value: 4294967295
      objectReference: {fileID: 0}
    - target: {fileID: 1660479392756500, guid: 9848e4b3deb970743a6ea02dcfe6159e, type: 2}
      propertyPath: m_Name
      value: Pillar_Pref (2)
      objectReference: {fileID: 0}
    - target: {fileID: 4397688981244916, guid: 9848e4b3deb970743a6ea02dcfe6159e, type: 2}
      propertyPath: m_LocalEulerAnglesHint.y
      value: 180
      objectReference: {fileID: 0}
    m_RemovedComponents: []
  m_ParentPrefab: {fileID: 100100000, guid: 9848e4b3deb970743a6ea02dcfe6159e, type: 2}
  m_RootGameObject: {fileID: 271094562}
  m_IsPrefabParent: 0
--- !u!1 &1557974874
GameObject:
  m_ObjectHideFlags: 0
  m_PrefabParentObject: {fileID: 0}
  m_PrefabInternal: {fileID: 0}
  serializedVersion: 5
  m_Component:
  - component: {fileID: 1557974876}
  - component: {fileID: 1557974875}
  m_Layer: 0
  m_Name: Directional Light
  m_TagString: Untagged
  m_Icon: {fileID: 0}
  m_NavMeshLayer: 0
  m_StaticEditorFlags: 0
  m_IsActive: 1
--- !u!108 &1557974875
Light:
  m_ObjectHideFlags: 0
  m_PrefabParentObject: {fileID: 0}
  m_PrefabInternal: {fileID: 0}
  m_GameObject: {fileID: 1557974874}
  m_Enabled: 1
  serializedVersion: 8
  m_Type: 1
  m_Color: {r: 1, g: 0.9308391, b: 0.8308824, a: 1}
  m_Intensity: 1.1
  m_Range: 10
  m_SpotAngle: 30
  m_CookieSize: 10
  m_Shadows:
    m_Type: 2
    m_Resolution: -1
    m_CustomResolution: -1
    m_Strength: 1
    m_Bias: 0.05
    m_NormalBias: 0.4
    m_NearPlane: 0.2
  m_Cookie: {fileID: 0}
  m_DrawHalo: 0
  m_Flare: {fileID: 0}
  m_RenderMode: 0
  m_CullingMask:
    serializedVersion: 2
    m_Bits: 4294967295
  m_Lightmapping: 4
  m_AreaSize: {x: 1, y: 1}
  m_BounceIntensity: 1
  m_ColorTemperature: 6570
  m_UseColorTemperature: 0
  m_ShadowRadius: 0
  m_ShadowAngle: 0
--- !u!4 &1557974876
Transform:
  m_ObjectHideFlags: 0
  m_PrefabParentObject: {fileID: 0}
  m_PrefabInternal: {fileID: 0}
  m_GameObject: {fileID: 1557974874}
  m_LocalRotation: {x: 0.53649837, y: -0.18319839, z: 0.15415628, w: 0.8092242}
  m_LocalPosition: {x: 0, y: 3, z: 0}
  m_LocalScale: {x: 1, y: 1, z: 1}
  m_Children: []
  m_Father: {fileID: 0}
  m_RootOrder: 1
  m_LocalEulerAnglesHint: {x: 67.635, y: -20.152, z: 7.9950004}
--- !u!1 &1615717806
GameObject:
  m_ObjectHideFlags: 0
  m_PrefabParentObject: {fileID: 1660479392756500, guid: 9848e4b3deb970743a6ea02dcfe6159e,
    type: 2}
  m_PrefabInternal: {fileID: 1020391100}
  serializedVersion: 5
  m_Component:
  - component: {fileID: 1615717809}
  - component: {fileID: 1615717808}
  - component: {fileID: 1615717807}
  m_Layer: 0
  m_Name: Pillar_Pref (3)
  m_TagString: Untagged
  m_Icon: {fileID: 0}
  m_NavMeshLayer: 0
  m_StaticEditorFlags: 4294967295
  m_IsActive: 1
--- !u!23 &1615717807
MeshRenderer:
  m_ObjectHideFlags: 0
  m_PrefabParentObject: {fileID: 23888049290030744, guid: 9848e4b3deb970743a6ea02dcfe6159e,
    type: 2}
  m_PrefabInternal: {fileID: 1020391100}
  m_GameObject: {fileID: 1615717806}
  m_Enabled: 1
  m_CastShadows: 1
  m_ReceiveShadows: 1
  m_DynamicOccludee: 1
  m_MotionVectors: 1
  m_LightProbeUsage: 1
  m_ReflectionProbeUsage: 1
  m_Materials:
  - {fileID: 2100000, guid: e2cfa5d8ccbd48d4a87792c5e65f03dc, type: 2}
  m_StaticBatchInfo:
    firstSubMesh: 0
    subMeshCount: 0
  m_StaticBatchRoot: {fileID: 0}
  m_ProbeAnchor: {fileID: 0}
  m_LightProbeVolumeOverride: {fileID: 0}
  m_ScaleInLightmap: 1
  m_PreserveUVs: 0
  m_IgnoreNormalsForChartDetection: 0
  m_ImportantGI: 0
  m_StitchLightmapSeams: 0
  m_SelectedEditorRenderState: 3
  m_MinimumChartSize: 4
  m_AutoUVMaxDistance: 0.5
  m_AutoUVMaxAngle: 89
  m_LightmapParameters: {fileID: 0}
  m_SortingLayerID: 0
  m_SortingLayer: 0
  m_SortingOrder: 0
--- !u!33 &1615717808
MeshFilter:
  m_ObjectHideFlags: 0
  m_PrefabParentObject: {fileID: 33806347611042714, guid: 9848e4b3deb970743a6ea02dcfe6159e,
    type: 2}
  m_PrefabInternal: {fileID: 1020391100}
  m_GameObject: {fileID: 1615717806}
  m_Mesh: {fileID: 4300000, guid: 07eb4bdb8fdb77343a40f200545c5841, type: 3}
--- !u!4 &1615717809
Transform:
  m_ObjectHideFlags: 0
  m_PrefabParentObject: {fileID: 4397688981244916, guid: 9848e4b3deb970743a6ea02dcfe6159e,
    type: 2}
  m_PrefabInternal: {fileID: 1020391100}
  m_GameObject: {fileID: 1615717806}
  m_LocalRotation: {x: 0, y: 0.7071068, z: 0, w: 0.7071068}
  m_LocalPosition: {x: -0.00000029913522, y: 0, z: 3}
  m_LocalScale: {x: 1, y: 1, z: 1}
  m_Children: []
  m_Father: {fileID: 0}
  m_RootOrder: 6
  m_LocalEulerAnglesHint: {x: 0, y: 90, z: 0}
